Julia para Ciencias de Datos
…
---
class: left, top

Un objeto `DataFrame` del paquete [DataFrames](https://github.com/JuliaData/DataFrames.jl) es mutable.  Este paquete ofrece funciones comparables con `tidyverse` o `pandas`.

```julia
julia> begin
           df = DataFrame(ct);
           describe(df)
       end
80×7 DataFrame
 Row │ variable                     mean      min                                median   max                                nmissing  eltype                  
     │ Symbol                       Union…    Any                                Union…   Any                                Int64     Type                    
─────┼─────────────────────────────────────────────────────────────────────────────────────────────────────────────────────────────────────────────────────────
   1 │ lab                                    babylabbrookes                              wsigoettingen                             0  String
   2 │ subid                                  1                                           zu247                                     0  String
   3 │ trial_num                    7.35365   -2                                 7.0      16                                        0  Int64
   4 │ trial_type                             ADS                                         TRAIN                                   636  Union{Missing, String}
   5 │ stimulus_num                 3.85648   -1                                 4.0      8                                       636  Union{Missing, Int64}
   6 │ looking_time                 6.72888   0.0                                5.2      18.0                                   4703  Union{Missing, Float64}
   7 │ trial_error                  0.149401  false                              0.0      true                                      0  Bool
  ⋮  │              ⋮                  ⋮                      ⋮                     ⋮                     ⋮                     ⋮                 ⋮
  74 │ session_error_change_reason            age exclusion - in age range                trial level error                     44846  Union{Missing, String}
  75 │ session_error_type_recoded             equipment failure                           outside interference                  47900  Union{Missing, String}
  76 │ trial_error_recoded          1.0       1                                  1.0      1                                     49302  Union{Missing, Int64}
  77 │ trial_error_change_reason              exclude as error based on lab re…           trial level error for fussiness …     49302  Union{Missing, String}
  78 │ nae                          0.452756  false                              0.0      true                                      0  Bool
  79 │ age_mo                       9.88087   2.92402                            9.79055  24.3121                                 119  Union{Missing, Float64}
  80 │ age_group                              12-15 mo                                    9-12 mo                                1165  Union{Missing, String}
                                                                                                                                                66 rows omitted
```

---
class: left, top

```julia
julia> df
50080×80 DataFrame
   Row │ lab             subid   trial_num  trial_type  stimulus_num  looking_time  trial_error  trial_error_type  method        ra       age_days  trial_order   ⋯
       │ String          String  Int64      String?     Int64?        Float64?      Bool         String?           String        String?  Int64?    Int64?        ⋯
───────┼───────────────────────────────────────────────────────────────────────────────────────────────────────────────────────────────────────────────────────────
     1 │ babylabbrookes  mb07           -2  TRAIN                 -1         11.21        false  missing           singlescreen  N1            493            3   ⋯
     2 │ babylabbrookes  mb07           -1  TRAIN                 -1          4.57        false  missing           singlescreen  N1            493            3
     3 │ babylabbrookes  mb07            1  IDS                    5          9.35        false  missing           singlescreen  N1            493            3
     4 │ babylabbrookes  mb07            2  ADS                    5          8.18        false  missing           singlescreen  N1            493            3
     5 │ babylabbrookes  mb07            3  ADS                    7          5.58        false  missing           singlescreen  N1            493            3   ⋯
     6 │ babylabbrookes  mb07            4  IDS                    7          8.94        false  missing           singlescreen  N1            493            3
     7 │ babylabbrookes  mb07            5  ADS                    1         18.0         false  missing           singlescreen  N1            493            3
   ⋮   │       ⋮           ⋮         ⋮          ⋮            ⋮             ⋮             ⋮              ⋮               ⋮           ⋮        ⋮           ⋮        ⋱
 50074 │ wsigoettingen   m417           10  IDS                    5          1.58        false  missing           singlescreen  Natalie       400            1
 50075 │ wsigoettingen   m417           11  ADS                    6          3.93        false  missing           singlescreen  Natalie       400            1   ⋯
 50076 │ wsigoettingen   m417           12  IDS                    6          2.12        false  missing           singlescreen  Natalie       400            1
 50077 │ wsigoettingen   m417           13  IDS                    7          2.95        false  missing           singlescreen  Natalie       400            1
 50078 │ wsigoettingen   m417           14  ADS                    7          2.78        false  missing           singlescreen  Natalie       400            1
 50079 │ wsigoettingen   m417           15  ADS                    8          2.97        false  missing           singlescreen  Natalie       400            1   ⋯
 50080 │ wsigoettingen   m417           16  IDS                    8          3.67        false  missing           singlescreen  Natalie       400            1
                                                                                                                                  68 columns and 50066 rows omitted
```
…
La función `Arrow.Table` lee un archivo Arrow y regresa una tabla en columnas que se puede convertir a `DataFrame` si se desea.

```julia
tbl = Arrow.Table("02_validated_output.arrow");
```
---
class: left, top

```julia
julia> df = DataFrame(tbl);

julia> describe(df)

80×7 DataFrame
 Row │ variable                     mean      min                                median   max                                nmissing  eltype                  
     │ Symbol                       Union…    Any                                Union…   Any                                Int64     Type                    
─────┼─────────────────────────────────────────────────────────────────────────────────────────────────────────────────────────────────────────────────────────
   1 │ lab                                    babylabbrookes                              wsigoettingen                             0  String
   2 │ subid                                  1                                           zu247                                     0  String
   3 │ trial_num                    7.35365   -2                                 7.0      16                                        0  Int64
   4 │ trial_type                             ADS                                         TRAIN                                   636  Union{Missing, String}
   5 │ stimulus_num                 3.85648   -1                                 4.0      8                                       636  Union{Missing, Int64}
   6 │ looking_time                 6.72888   0.0                                5.2      18.0                                   4703  Union{Missing, Float64}
   7 │ trial_error                  0.149401  false                              0.0      true                                      0  Bool
   8 │ trial_error_type                       "experimenter error"                        wiggly                                41611  Union{Missing, String}
  ⋮  │              ⋮                  ⋮                      ⋮                     ⋮                     ⋮                     ⋮                 ⋮
  73 │ session_error_recoded        0.104513  0                                  0.0      1                                         0  Int64
  74 │ session_error_change_reason            age exclusion - in age range                trial level error                     44846  Union{Missing, String}
  75 │ session_error_type_recoded             equipment failure                           outside interference                  47900  Union{Missing, String}
  76 │ trial_error_recoded          1.0       1                                  1.0      1                                     49302  Union{Missing, Int64}
  77 │ trial_error_change_reason              exclude as error based on lab re…           trial level error for fussiness …     49302  Union{Missing, String}
  78 │ nae                          0.452756  false                              0.0      true                                      0  Bool
  79 │ age_mo                       9.88087   2.92402                            9.79055  24.3121                                 119  Union{Missing, Float64}
  80 │ age_group                              12-15 mo                                    9-12 mo                                1165  Union{Missing, String}
                                                                                                                                                64 rows omitted
…
