…
- Notice that the `chromo` column has been converted from strings to a dictionary encoding of the unique values of the strings and 8-bit integer indices into this dictionary.
- This was done in the call to `CSV.File` in the Julia session.
- The `pyarrow.feather.read_feather` function reads the table and converts the result to a Pandas dataframe

```{julia}
feather.read_feather(rnaarrownm)
```

### R

- In R the `arrow::read_feather` function returns a tibble.  In an R session it looks like
```r
> library(tibble)
> arrow::read_feather("./biofast-data-v1/ex-rna.arrow")
# A tibble: 8,942,869 × 3
   chromo     start      stop
   <fct>      <int>     <int>
 1 chr2   216499331 216501458
 2 chr7   101239611 101245071
 3 chr19   49487626  49491841
 4 chr10   80155590  80169336
 5 chr17   76270411  76271290
 6 chr6    31268756  31272069
 7 chr5   170083214 170083368
 8 chr19   51989731  51989996
 9 chr18   55225980  55226732
10 chr16   84565611  84566066
# … with 8,942,859 more rows
```
…
