Julia Workshop - Session 2a: Data Tables and Arrow files
…
Reading Arrow files in R

In R (and in Python) the Arrow file format is confounded with an earlier file format called Feather and referred to as Feather V2.

In R the arrow::read_feather function returns a tibble. In an R session it looks like

> library(tibble)
> arrow::read_feather("./biofast-data-v1/ex-rna.arrow")
# A tibble: 4,685,080 × 3
   chromo start  stop
   <fct>  <int> <int>
 1 chr01  14354 24892
 2 chr01  14359 24855
 3 chr01  14361 14672
 4 chr01  14361 16878
 5 chr01  14366 24894
 6 chr01  14370 14989
 7 chr01  14396 24894
 8 chr01  14397 17733
 9 chr01  14398 24894
10 chr01  14399 15977
# … with 4,685,070 more rows
…
