Julia Workshop - Session 2a: Data Tables and Arrow files
…
In the next section we will use data from chr21 for comparative timings, because there are small, but nontrivial, number of intervals in both the reference and target groups.

Reading Arrow files in R

In R (and in Python) the Arrow file format is confounded with an earlier file format called Feather and referred to as Feather V2.

In R the arrow::read_feather function returns a tibble. In an R session it looks like

> library(tibble)
> arrow::read_feather("biofast-data-v1/ex-rna.arrow")
# A tibble: 4,685,080 × 3
   chromo     start      stop
   <fct>      <int>     <int>
 1 chr02  216499331 216501458
 2 chr07  101239611 101245071
 3 chr19   49487626  49491841
 4 chr10   80155590  80169336
 5 chr17   76270411  76271290
 6 chr06   31268756  31272069
 7 chr05  170083214 170083368
 8 chr19   51989731  51989996
 9 chr18   55225980  55226732
10 chr16   84565611  84566066
# … with 4,685,070 more rows
…
